{
  "name": "vagrant",
  "description": "This environment describes a local development environment using Vagrant",
  "json_class": "Chef::Environment",
  "chef_type": "environment",
  "default_attributes": {
  },
  "override_attributes": {
  }
}
